module gitlab.com/kennethdashensheridan/postgreSQLBench

go 1.17

require github.com/jackc/pgx v3.6.2+incompatible

require (
	github.com/cockroachdb/apd v1.1.0 // indirect
	github.com/gofrs/uuid v4.2.0+incompatible // indirect
	github.com/jackc/fake v0.0.0-20150926172116-812a484cc733 // indirect
	github.com/lib/pq v1.10.4 // indirect
	github.com/pkg/errors v0.9.1 // indirect
	github.com/shopspring/decimal v1.3.1 // indirect
	golang.org/x/crypto v0.0.0-20220214200702-86341886e292 // indirect
	golang.org/x/text v0.3.7 // indirect
)
